…
✓ readr   1.4.0     ✓ forcats 0.5.1
── Conflicts ──────────────────────────────────────────── tidyverse_conflicts() ──
x dplyr::filter() masks stats::filter()
x dplyr::lag()    masks stats::lag()
> library(readxl)
> e <- readxl_example(c)
Error in system.file("extdata", path, package = "readxl", mustWork = TRUE) : 
  no file found
> c
[1] "/Users/alexandergoldstein/Documents/E-Day 2020 Voter Registration stats.xlsx"
> readxl_example("/Users/alexandergoldstein/Documents/E-Day 2020 Voter Registration stats.xlsx")
Error in system.file("extdata", path, package = "readxl", mustWork = TRUE) : 
  no file found
> read_excel(c)
# A tibble: 101 x 16                                                            
   County Democratic Republican Green Constitution Libertarian Unaffiliated White
   <chr>       <dbl>      <dbl> <dbl>        <dbl>       <dbl>        <dbl> <dbl>
 1 NA             NA         NA    NA           NA          NA           NA    NA
 2 ALAMA…      39209      36271    31           66         654        34695 71870
 3 ALEXA…       5105      11775     3           22         108         7940 21634
 4 ALLEG…       2156       2984     4            2          34         2429  6739
 5 ANSON       10125       2867     8           24          35         3673  6709
 6 ASHE         4502       8875     5           16          92         6055 17822
 7 AVERY        1428       7161     6            9          61         3690 11096
 8 BEAUF…      11952      12094    16           18         109         9901 23194
 9 BERTIE       8767       1631     3            3          38         2893  4624
10 BLADEN      10752       4956     5            7          63         7072 12731
# … with 91 more rows, and 8 more variables: Black <dbl>, American <chr>, `Native
#   Hawaiian` <dbl>, Other <dbl>, Hispanic <dbl>, Male <dbl>, Female <dbl>,
#   Total <dbl>
> read_excel(c)
# A tibble: 101 x 16                                                            
   County Democrat Republican Green Constitution Libertarian Independent White
   <chr>     <dbl>      <dbl> <dbl>        <dbl>       <dbl>       <dbl> <dbl>
 1 NA           NA         NA    NA           NA          NA          NA    NA
 2 ALAMA…    39209      36271    31           66         654       34695 71870
 3 ALEXA…     5105      11775     3           22         108        7940 21634
 4 ALLEG…     2156       2984     4            2          34        2429  6739
 5 ANSON     10125       2867     8           24          35        3673  6709
 6 ASHE       4502       8875     5           16          92        6055 17822
 7 AVERY      1428       7161     6            9          61        3690 11096
 8 BEAUF…    11952      12094    16           18         109        9901 23194
 9 BERTIE     8767       1631     3            3          38        2893  4624
10 BLADEN    10752       4956     5            7          63        7072 12731
# … with 91 more rows, and 8 more variables: Black <dbl>, Native <chr>,
#   Hawaiian <dbl>, Other <dbl>, Hispanic <dbl>, Male <dbl>, Female <dbl>,
#   Total <dbl>
> c <- file.choose()
> d <- file.choose()
> read_excel(c)
# A tibble: 101 x 16                                                            
   County Democrat Republican Green Constitution Libertarian Independent White
   <chr>     <dbl>      <dbl> <dbl>        <dbl>       <dbl>       <dbl> <dbl>
 1 NA           NA         NA    NA           NA          NA          NA    NA
 2 ALAMA…    39529      33130     0            0         440       28037 72449
 3 ALEXA…     6553      10749     0            0          71        7056 22683
 4 ALLEG…     2813       2557     0            0          36        2064  7132
 5 ANSON     11939       2456     0            0          19        3002  7514
 6 ASHE       5668       8060     0            0          65        5251 18479
 7 AVERY      1493       7029     0            0          49        3388 11546
 8 BEAUF…    13896      10743     0            0          98        8585 23509
 9 BERTIE    10309       1541     0            0          19        2379  5059
10 BLADEN    13713       3462     0            0          33        5878 13404
# … with 91 more rows, and 8 more variables: Black <dbl>, Native <chr>,
#   Hawaiian <dbl>, Other <dbl>, Hispanic <dbl>, Male <dbl>, Female <dbl>,
#   Total <dbl>
…
